{
  "current": {
    "show_announcement_bar": false,
    "show_fixed_message": true,
    "header_layout": "centered",
    "footer_layout": "classic",
    "mobile_logo_width": 220,
    "show_locale_selector": false,
    "mobile_sidebar_position": "below",
    "mobile_menu_background_color": "rgba(255,255,255,1)",
    "button_primary_padding": "regular",
    "button_primary_bg_color": "#222222",
    "button_primary_border_radius": 35,
    "button_secondary_bg_color": "#ffffff",
    "button_secondary_bg_color_transparency": 100,
    "button_secondary_border_color": "rgba(0,0,0,0)",
    "button_secondary_text_color": "#222222",
    "button_secondary_bg_color--highlight": "rgba(0,0,0,0)",
    "button_secondary_border_color--highlight": "rgba(0,0,0,0)",
    "button_secondary_border_radius": 35,
    "button_link_padding": "regular",
    "button_link_text_color": "#222222",
    "button_cart_bg_color": "#222222",
    "button_cart_bg_color--highlight": "#000000",
    "icon": "icon_solid",
    "toggle_icon_style": "plus_and_minus",
    "breadcrumb_separator": "slash",
    "breadcrumb_size": "small",
    "dropdown_link_spacing": "medium",
    "use_placeholders": true,
    "form_button_style": "button--primary",
    "display_heading_divider": false,
    "tag_style": "outline",
    "mega_menu_2": true,
    "mega_menu_3": true,
    "mega_menu_4": true,
    "mega_menu_5": true,
    "mega_menu_6": false,
    "mega_menu_7": false,
    "mega_menu_8": false,
    "mega_menu_9": false,
    "mega_menu_10": false,
    "regular_color": "#222222",
    "link_color": "#222222",
    "link_hover_color": "#777777",
    "heading_color": "#222222",
    "divider_color": "rgba(0,0,0,0)",
    "logo_text": "#222222",
    "header_background": "#ffffff",
    "header_link_color": "#222222",
    "header_link_hover_color": "#777777",
    "header_cart_badge_color": "#222222",
    "dropdown_link_color": "#222222",
    "dropdown_link_hover_color": "#777777",
    "review_star": "#222222",
    "was_price_color": "#999999",
    "product_hover_text_color": "#222222",
    "banner_sale": "#f15d22",
    "regular__font": "sans-serif",
    "logo__font": "sans-serif",
    "nav__font": "sans-serif",
    "nav_letter_spacing": 0,
    "button__font": "sans-serif",
    "heading__font": "sans-serif",
    "preheading_font": "sans-serif",
    "subheading_font": "sans-serif",
    "banner_heading__font": "sans-serif",
    "banner_text__font": "sans-serif",
    "footer_heading_font_size": 16,
    "footer_font_size": 13,
    "search_display_style": "overlay",
    "enable_shopify_collection_badges": false,
    "show_secondary_image": true,
    "display_vendor": true,
    "thumbnail_hover_enabled": false,
    "thumbnail_text_alignment": "left",
    "sticker_shape": "square",
    "collection_swatches_shape": "circle",
    "select_first_available_variant": true,
    "display_inventory_left": false,
    "free_price_text": "",
    "product_form_style": "radio",
    "enable_swatches": true,
    "swatch_trigger": "Colour",
    "swatch_style": "rounded",
    "notify_me_form": false,
    "enable_quickshop": false,
    "quickshop_button_style": "button--primary",
    "cart_action": "mini_cart",
    "cart_icon": "bag",
    "display_savings": true,
    "display_ajax_quantity_box": false,
    "enable_shipping_calculator": true,
    "shipping_calculator_default_country": "New Zealand",
    "currency_format": "money_with_currency_format",
    "show_multiple_currencies": true,
    "supported_currencies": "NZD USD GBP EUR CNY",
    "default_currency": "",
    "facebook_link": "https:\/\/www.facebook.com\/untouchedworld",
    "instagram_link": "https:\/\/instagram.com\/untouchedworldnz",
    "linkedin_link": "https:\/\/nz.linkedin.com\/company\/untouched-world",
    "pinterest_link": "https:\/\/www.pinterest.nz\/untouchedworld",
    "tiktok_link": "",
    "show_top_bar": true,
    "sections": {
      "announcement-bar": {
        "type": "announcement-bar",
        "settings": {
          "icon_label": "tag",
          "text": "<p>Draw attention to promos + sales!<\/p>",
          "alignment": "center",
          "size": "regular",
          "button_label": "",
          "link": "",
          "button_style": "button--primary",
          "background": "#000000",
          "text_color": "#ffffff",
          "width": "wide",
          "homepage_only": false,
          "enable_sticky": false,
          "show_close_icon": true,
          "css_class": "",
          "custom_css": ""
        }
      },
      "header__top-bar": {
        "type": "header__top-bar",
        "blocks": {
          "header__top-bar-0": {
            "type": "text",
            "settings": {
              "text": "123 Main Street, Pleasantville USA"
            }
          },
          "header__top-bar-1": {
            "type": "social_media",
            "settings": {}
          }
        },
        "block_order": [
          "header__top-bar-0",
          "header__top-bar-1"
        ],
        "settings": {
          "show_top_bar": true,
          "font": "open_sans_n4",
          "font_style": "none",
          "font_size": 14,
          "letter_spacing": 0,
          "show_locale_selector": true,
          "show_currency_selector": true,
          "background": "rgba(0,0,0,0)",
          "link_color": "rgba(0,0,0,0)",
          "link_hover_color": "rgba(0,0,0,0)",
          "text_color": "rgba(0,0,0,0)",
          "width": "standard",
          "css_class": "",
          "custom_css": ""
        }
      },
      "header-classic": {
        "type": "header-classic",
        "settings": {
          "logo_width": 200,
          "main_linklist": "main-menu",
          "menu_alignment": "start",
          "dropdown_click": false,
          "display_search": true,
          "icon_style": "icons",
          "enable_overlay": false,
          "show_text_shadow": false,
          "overlay_link_color": "rgba(0,0,0,0)",
          "overlay_link_hover_color": "rgba(0,0,0,0)",
          "overlay_background": "rgba(0,0,0,0)",
          "overlay_background_opacity": 0,
          "overlay_logo_width": 80,
          "enable_sticky": false,
          "sticky_background_opacity": 50,
          "scroll_logo_width": 80,
          "width": "standard",
          "vertical_alignment": "center",
          "css_class": "",
          "custom_css": ""
        }
      },
      "mega-menu-1": {
        "type": "mega-menu-1",
        "blocks": {
          "mega-menu-1-0": {
            "type": "menu",
            "settings": {
              "menu_1": "women-featured-mega-menu",
              "menu_1_link": "",
              "menu_1_title": "Featured"
            }
          },
          "a57dc3b3-f643-4b3e-a8d2-4c1ec25e93b2": {
            "type": "menu",
            "settings": {
              "menu_1": "women-clothing-mega-menu",
              "menu_1_link": "",
              "menu_1_title": "Clothing"
            }
          },
          "08d545d0-bb3e-4e32-ae47-34c565a33b96": {
            "type": "menu",
            "settings": {
              "menu_1": "women-accessories-mega-menu",
              "menu_1_link": "",
              "menu_1_title": "Accessories"
            }
          },
          "fe4e02d5-9a89-4e51-9ca1-40defcff0d2d": {
            "type": "featured_promo",
            "settings": {
              "image": "shopify:\/\/shop_images\/menu-aw23-mohair-01.jpg",
              "richtext": "<p><strong>Dreaming of Mohair<\/strong><br\/>These layering pieces deliver effortlessly sumptuous style.<\/p>",
              "bgr_color": "rgba(0,0,0,0)",
              "text_color": "#222222",
              "promo_link": "shopify:\/\/collections\/womens-new-arrivals",
              "button_label": "",
              "button_style": "button--primary"
            }
          },
          "7865775d-68b8-44b0-a9ee-2da12ffa5ecd": {
            "type": "featured_promo",
            "settings": {
              "image": "shopify:\/\/shop_images\/menu-aw23-kapua-02.jpg",
              "richtext": "<p><strong>Kapua Knitwear<\/strong><br\/>Our Coveted Cashmere blend.<\/p>",
              "bgr_color": "rgba(0,0,0,0)",
              "text_color": "#222222",
              "promo_link": "shopify:\/\/collections\/womens-new-arrivals",
              "button_label": "",
              "button_style": "button--primary"
            }
          },
          "92201a1a-6d65-4444-9f9b-b0540cbde2c8": {
            "type": "empty_column",
            "settings": {}
          },
          "259736ec-5e08-430f-a95c-14d45c4f2231": {
            "type": "empty_column",
            "settings": {}
          }
        },
        "block_order": [
          "mega-menu-1-0",
          "a57dc3b3-f643-4b3e-a8d2-4c1ec25e93b2",
          "08d545d0-bb3e-4e32-ae47-34c565a33b96",
          "fe4e02d5-9a89-4e51-9ca1-40defcff0d2d",
          "7865775d-68b8-44b0-a9ee-2da12ffa5ecd",
          "92201a1a-6d65-4444-9f9b-b0540cbde2c8",
          "259736ec-5e08-430f-a95c-14d45c4f2231"
        ],
        "settings": {
          "parent_link": "Woman",
          "enable_mega_menu_border": false,
          "mega_menu_background_color": "#ffffff",
          "mega_menu_text_color": "#222222",
          "show_mega_bottom_bar": false,
          "mega_bottom_bar_icon": "",
          "mega_bottom_bar_text": "Add your deal, information or promotional text",
          "mega_bottom_bar_link": "",
          "size": "regular",
          "bottom_banner_bg": "#007ace",
          "bottom_banner_text": "#efefef",
          "css_class": "",
          "custom_css": ""
        }
      },
      "footer__icon-bar": {
        "type": "footer__icon-bar",
        "settings": {
          "show_icon_bar": false,
          "alignment": "center",
          "icon_position": "row",
          "size": "medium",
          "background": "#8b8b8b",
          "link_color": "#ffffff",
          "link_hover_color": "#000000",
          "text_color": "#ffffff",
          "width": "standard",
          "css_class": "",
          "custom_css": ""
        }
      },
      "footer-classic": {
        "type": "footer-classic",
        "blocks": {
          "footer-classic-1": {
            "type": "link_list",
            "settings": {
              "menu": "main-menu",
              "social_icons_footer": false
            }
          },
          "ad84a923-8882-495e-940a-10d635d50021": {
            "type": "link_list",
            "settings": {
              "menu": "footer",
              "social_icons_footer": false
            }
          },
          "02f029ba-851b-496e-9535-95f3c7a04211": {
            "type": "link_list",
            "settings": {
              "menu": "footer",
              "social_icons_footer": false
            }
          },
          "footer-classic-2": {
            "type": "text",
            "disabled": true,
            "settings": {
              "title": "Title",
              "content": "<p>Use this text to share information about your brand with your customers. Describe a product, share announcements, or welcome customers to your store.<\/p>",
              "social_icons_footer": false
            }
          },
          "footer-classic-0": {
            "type": "logo",
            "settings": {
              "size": "small",
              "text": "",
              "social_icons_footer": false
            }
          }
        },
        "block_order": [
          "footer-classic-1",
          "ad84a923-8882-495e-940a-10d635d50021",
          "02f029ba-851b-496e-9535-95f3c7a04211",
          "footer-classic-2",
          "footer-classic-0"
        ],
        "settings": {
          "copyright_text": "",
          "display_designed_by": true,
          "display_shopify": true,
          "display_payment_methods": true,
          "show_locale_selector": true,
          "show_currency_selector": false,
          "css_class": "",
          "custom_css": ""
        }
      },
      "header-centered__top-bar": {
        "type": "header-centered__top-bar",
        "settings": {
          "show_social_icons": true,
          "text": "<p>Add a phone number or other information.<\/p>",
          "show_locale_selector": true,
          "show_currency_selector": true,
          "font": "open_sans_n4",
          "font_style": "none",
          "font_size": 14,
          "letter_spacing": 0,
          "top_bar_background": "rgba(0,0,0,0)",
          "top_bar_link": "rgba(0,0,0,0)",
          "top_bar_link_hover": "rgba(0,0,0,0)",
          "top_bar_text": "rgba(0,0,0,0)",
          "display_search": true,
          "icon_style": "icons",
          "cart_button_background": "#000000",
          "cart_button_text": "#ffffff",
          "css_class": "",
          "custom_css": ""
        }
      },
      "header-centered": {
        "type": "header-centered",
        "settings": {
          "logo_width": 200,
          "logo_position": "between",
          "menu_spacing": "default",
          "dropdown_click": false,
          "enable_overlay": false,
          "show_text_shadow": false,
          "overlay_background": "rgba(0,0,0,0)",
          "overlay_background_opacity": 0,
          "overlay_link_color": "rgba(0,0,0,0)",
          "overlay_link_hover_color": "rgba(0,0,0,0)",
          "overlay_logo_width": 80,
          "enable_sticky": false,
          "display_search": true,
          "sticky_background_opacity": 50,
          "scroll_logo_width": 200,
          "width": "standard",
          "css_class": "",
          "custom_css": ""
        }
      },
      "UTW-header-centered": {
        "type": "UTW-header-centered",
        "blocks": {
          "d77f3fab-e058-4f7d-b427-3edeccac3b89": {
            "type": "text",
            "settings": {
              "announcement_text": "<p>Free NZ shipping on orders over $100  |  International shipping <a href=\"https:\/\/www.untouchedworld.com\/pages\/free-shipping\" title=\"\/pages\/free-shipping\">click here<\/a>.<\/p>"
            }
          },
          "eb32b28c-8d1c-45a5-b7f6-8dc1d3f51fe8": {
            "type": "text",
            "settings": {
              "announcement_text": "<p>Final Reductions: 40% off selected styles  |  <a href=\"https:\/\/www.untouchedworld.com\/collections\/sale\" title=\"Sale\">Shop the Sale<\/a><\/p>"
            }
          }
        },
        "block_order": [
          "d77f3fab-e058-4f7d-b427-3edeccac3b89",
          "eb32b28c-8d1c-45a5-b7f6-8dc1d3f51fe8"
        ],
        "settings": {
          "logo": "{{ shop.brand.logo }}",
          "tablet_logo_width": 150,
          "logo_width": 280,
          "logo_position": "between",
          "announcement_link": "following",
          "announcement_background": "#222222",
          "announcement_text_color": "#ffffff",
          "time": 5,
          "left_main_linklist": "left-main-menu",
          "right_main_linklist": "right-main-menu",
          "menu_spacing": "default",
          "dropdown_click": false,
          "show_locale_selector": false,
          "show_currency_selector": true,
          "cart_button_background": "#000000",
          "cart_button_text": "#ffffff",
          "display_search_header": true,
          "display_wishlist_header": false,
          "enable_overlay": false,
          "show_text_shadow": false,
          "overlay_background": "rgba(0,0,0,0)",
          "overlay_background_opacity": 0,
          "overlay_link_color": "rgba(0,0,0,0)",
          "overlay_link_hover_color": "rgba(0,0,0,0)",
          "overlay_logo_width": 80,
          "enable_sticky": true,
          "display_search": true,
          "sticky_background_opacity": 100,
          "scroll_logo_width": 200,
          "width": "standard",
          "css_class": "",
          "custom_css": ""
        }
      },
      "mega-menu-2": {
        "type": "mega-menu-2",
        "blocks": {
          "mega-menu-2-0": {
            "type": "menu",
            "settings": {
              "menu_1": "men-featured-mega-menu",
              "menu_1_link": "",
              "menu_1_title": "Featured"
            }
          },
          "061c9fbf-0f78-49a7-a4d5-d425094c78ee": {
            "type": "menu",
            "settings": {
              "menu_1": "men-clothing-mega-menu",
              "menu_1_link": "",
              "menu_1_title": "Clothing"
            }
          },
          "fb59aab1-56c4-43c2-87f3-8ed49a02da4e": {
            "type": "menu",
            "settings": {
              "menu_1": "men-accessories-mega-menu-1",
              "menu_1_link": "",
              "menu_1_title": "Accessories"
            }
          },
          "638c87e9-37e4-451e-8897-5264c11d05a8": {
            "type": "featured_promo",
            "settings": {
              "image": "shopify:\/\/shop_images\/menu-aw23-obama-01.jpg",
              "richtext": "<p><strong>Worn by Leaders<\/strong><br\/>The Estuary Half Zip is essential in a man's wardrobe.<\/p>",
              "bgr_color": "rgba(0,0,0,0)",
              "text_color": "#111111",
              "promo_link": "shopify:\/\/products\/estuary-half-zip-uw-1500",
              "button_label": "",
              "button_style": "button--primary"
            }
          },
          "1580d6eb-6a85-4699-8ba8-df55ca699ddc": {
            "type": "featured_promo",
            "settings": {
              "image": "shopify:\/\/shop_images\/menu-aw23-cassum-01.jpg",
              "richtext": "<p><strong>Cassum Knitwear<\/strong><br\/>Our premium Cashmere blend.<\/p>",
              "bgr_color": "rgba(0,0,0,0)",
              "text_color": "#111111",
              "promo_link": "shopify:\/\/collections\/mens-cassum-knitwear",
              "button_label": "",
              "button_style": "button--primary"
            }
          },
          "40f90704-2777-469a-898b-3ba103da9059": {
            "type": "empty_column",
            "settings": {}
          },
          "864f261b-39b5-4f9c-9111-5930c955ff91": {
            "type": "empty_column",
            "settings": {}
          }
        },
        "block_order": [
          "mega-menu-2-0",
          "061c9fbf-0f78-49a7-a4d5-d425094c78ee",
          "fb59aab1-56c4-43c2-87f3-8ed49a02da4e",
          "638c87e9-37e4-451e-8897-5264c11d05a8",
          "1580d6eb-6a85-4699-8ba8-df55ca699ddc",
          "40f90704-2777-469a-898b-3ba103da9059",
          "864f261b-39b5-4f9c-9111-5930c955ff91"
        ],
        "settings": {
          "parent_link": "Man",
          "enable_mega_menu_border": false,
          "mega_menu_background_color": "#ffffff",
          "mega_menu_text_color": "#222222",
          "show_mega_bottom_bar": false,
          "mega_bottom_bar_icon": "",
          "mega_bottom_bar_text": "Add your deal, information or promotional text",
          "mega_bottom_bar_link": "",
          "size": "regular",
          "bottom_banner_bg": "#007ace",
          "bottom_banner_text": "#efefef",
          "css_class": "",
          "custom_css": ""
        }
      },
      "mega-menu-3": {
        "type": "mega-menu-3",
        "blocks": {
          "mega-menu-3-0": {
            "type": "menu",
            "settings": {
              "menu_1": "child-featured-mega-menu",
              "menu_1_link": "",
              "menu_1_title": "Featured"
            }
          },
          "07e79816-6f02-4bca-985a-58ddcc5d78fd": {
            "type": "menu",
            "settings": {
              "menu_1": "child-clothing-mega-menu",
              "menu_1_link": "",
              "menu_1_title": "Clothing"
            }
          },
          "b51ff9bf-8b1e-4e68-a41c-92d188c6fed1": {
            "type": "menu",
            "settings": {
              "menu_1": "child-products-mega-menu",
              "menu_1_link": "",
              "menu_1_title": "Other"
            }
          },
          "af130aa7-5225-4e04-844a-68ca7364c7d2": {
            "type": "featured_promo",
            "settings": {
              "image": "shopify:\/\/shop_images\/menu-child-aw23-2.jpg",
              "richtext": "<p><strong>A Walk in Nature<\/strong><br\/>Capturing the playful essence of youth.<\/p>",
              "bgr_color": "rgba(0,0,0,0)",
              "text_color": "#111111",
              "promo_link": "shopify:\/\/collections\/childrens-new-arrivals",
              "button_label": "",
              "button_style": "button--primary"
            }
          },
          "2a7f5215-0587-46ac-9ba6-831320a9b101": {
            "type": "featured_promo",
            "settings": {
              "image": "shopify:\/\/shop_images\/aw23-baby-01.jpg",
              "richtext": "<p><strong>Made to Nurture<\/strong><br\/>Meet our cutest new arrivals, made from nature to nurture you little one.<\/p>",
              "bgr_color": "rgba(0,0,0,0)",
              "text_color": "#111111",
              "promo_link": "shopify:\/\/collections\/childrens-new-arrivals",
              "button_label": "",
              "button_style": "button--primary"
            }
          },
          "725ca979-1685-446b-80c9-80412a0cd2ec": {
            "type": "empty_column",
            "settings": {}
          },
          "0fbfd791-ce72-4ec5-a1a0-dd56be7ad1a7": {
            "type": "empty_column",
            "settings": {}
          }
        },
        "block_order": [
          "mega-menu-3-0",
          "07e79816-6f02-4bca-985a-58ddcc5d78fd",
          "b51ff9bf-8b1e-4e68-a41c-92d188c6fed1",
          "af130aa7-5225-4e04-844a-68ca7364c7d2",
          "2a7f5215-0587-46ac-9ba6-831320a9b101",
          "725ca979-1685-446b-80c9-80412a0cd2ec",
          "0fbfd791-ce72-4ec5-a1a0-dd56be7ad1a7"
        ],
        "settings": {
          "parent_link": "Child",
          "enable_mega_menu_border": false,
          "mega_menu_background_color": "#ffffff",
          "mega_menu_text_color": "#222222",
          "show_mega_bottom_bar": false,
          "mega_bottom_bar_icon": "",
          "mega_bottom_bar_text": "Add your deal, information or promotional text",
          "mega_bottom_bar_link": "",
          "size": "regular",
          "bottom_banner_bg": "#007ace",
          "bottom_banner_text": "#efefef",
          "css_class": "",
          "custom_css": ""
        }
      },
      "mega-menu-4": {
        "type": "mega-menu-4",
        "blocks": {
          "810abe3c-4861-4dce-9f5b-adf9ba197033": {
            "type": "menu",
            "settings": {
              "menu_1": "home-products-mega-menu",
              "menu_1_link": "",
              "menu_1_title": "Products"
            }
          },
          "cb203407-4766-4b58-8f0e-c62ef59d96ae": {
            "type": "featured_promo",
            "settings": {
              "image": "shopify:\/\/shop_images\/menu-home-realworld-01.jpg",
              "richtext": "<p><strong>Real World Body Care<\/strong><br\/>Bring a sense of restorative care to your skin<\/p>",
              "bgr_color": "rgba(0,0,0,0)",
              "text_color": "#111111",
              "promo_link": "shopify:\/\/collections\/real-world-body-care",
              "button_label": "Shop Real World",
              "button_style": "button--primary"
            }
          },
          "091abea7-71d9-48e2-9e51-fc4091a16510": {
            "type": "featured_promo",
            "settings": {
              "image": "shopify:\/\/shop_images\/menu-home-books-01.jpg",
              "richtext": "<p><strong>Good Reads<\/strong><br\/>Discover inspiration, unwind, and revitalize.<\/p>",
              "bgr_color": "rgba(0,0,0,0)",
              "text_color": "#111111",
              "promo_link": "",
              "button_label": "Shop Books",
              "button_style": "button--primary"
            }
          },
          "55d5bc58-6a6c-4d76-b5cd-0c0356d3e855": {
            "type": "empty_column",
            "settings": {}
          },
          "7af7dcd3-d3ae-43c2-a463-e2a638bf7eeb": {
            "type": "empty_column",
            "settings": {}
          },
          "55f78b31-78d1-4b99-968a-23ade8d03b8d": {
            "type": "empty_column",
            "settings": {}
          },
          "dc0bb474-2458-4efe-9a7e-68dd07981b0a": {
            "type": "empty_column",
            "settings": {}
          }
        },
        "block_order": [
          "810abe3c-4861-4dce-9f5b-adf9ba197033",
          "cb203407-4766-4b58-8f0e-c62ef59d96ae",
          "091abea7-71d9-48e2-9e51-fc4091a16510",
          "55d5bc58-6a6c-4d76-b5cd-0c0356d3e855",
          "7af7dcd3-d3ae-43c2-a463-e2a638bf7eeb",
          "55f78b31-78d1-4b99-968a-23ade8d03b8d",
          "dc0bb474-2458-4efe-9a7e-68dd07981b0a"
        ],
        "settings": {
          "parent_link": "Home",
          "enable_mega_menu_border": false,
          "mega_menu_background_color": "#ffffff",
          "mega_menu_text_color": "#222222",
          "show_mega_bottom_bar": false,
          "mega_bottom_bar_icon": "",
          "mega_bottom_bar_text": "Add your deal, information or promotional text",
          "mega_bottom_bar_link": "",
          "size": "regular",
          "bottom_banner_bg": "#007ace",
          "bottom_banner_text": "#efefef",
          "css_class": "",
          "custom_css": ""
        }
      },
      "mega-menu-5": {
        "type": "mega-menu-5",
        "blocks": {
          "mega-menu-5-0": {
            "type": "menu",
            "settings": {
              "menu_1": "explore-about-us-mega-menu",
              "menu_1_link": "",
              "menu_1_title": "Behind the Brand"
            }
          },
          "0542be09-b341-4269-a2cb-a76aadbd7c9e": {
            "type": "menu",
            "settings": {
              "menu_1": "explore-our-fabrics-fibres-mega-menu",
              "menu_1_link": "",
              "menu_1_title": "Fabrics & Fibres"
            }
          },
          "22062575-dea9-4731-bd2a-87f8d1884874": {
            "type": "menu",
            "settings": {
              "menu_1": "explore-sustainability-mega-menu",
              "menu_1_link": "",
              "menu_1_title": "People & Planet"
            }
          },
          "mega-menu-5-4": {
            "type": "image",
            "settings": {
              "image": "shopify:\/\/shop_images\/home-bcorp_1.png",
              "image_link": "shopify:\/\/pages\/b-corp",
              "image_caption": "<p><a href=\"\/pages\/b-corp\" title=\"B Corp\">Business for Good<\/a><\/p>"
            }
          },
          "b0ec2639-969f-4719-88db-49ae2eaa4f7a": {
            "type": "empty_column",
            "settings": {}
          },
          "005d8503-dc47-4a54-90ae-0a86eaaf00d4": {
            "type": "empty_column",
            "settings": {}
          },
          "c9c3f097-fbc2-4eeb-86dc-e59e17b06783": {
            "type": "empty_column",
            "disabled": true,
            "settings": {}
          }
        },
        "block_order": [
          "mega-menu-5-0",
          "0542be09-b341-4269-a2cb-a76aadbd7c9e",
          "22062575-dea9-4731-bd2a-87f8d1884874",
          "mega-menu-5-4",
          "b0ec2639-969f-4719-88db-49ae2eaa4f7a",
          "005d8503-dc47-4a54-90ae-0a86eaaf00d4",
          "c9c3f097-fbc2-4eeb-86dc-e59e17b06783"
        ],
        "settings": {
          "parent_link": "Explore",
          "enable_mega_menu_border": false,
          "mega_menu_background_color": "#ffffff",
          "mega_menu_text_color": "#222222",
          "show_mega_bottom_bar": false,
          "mega_bottom_bar_icon": "",
          "mega_bottom_bar_text": "Add your deal, information or promotional text",
          "mega_bottom_bar_link": "",
          "size": "regular",
          "bottom_banner_bg": "#007ace",
          "bottom_banner_text": "#efefef",
          "css_class": "",
          "custom_css": ""
        }
      },
      "mega-menu-6": {
        "type": "mega-menu-6",
        "blocks": {
          "mega-menu-6-0": {
            "type": "menu",
            "settings": {
              "menu_1": "",
              "menu_1_link": ""
            }
          },
          "mega-menu-6-1": {
            "type": "featured_promo",
            "settings": {
              "richtext": "<p>Add description and links to your promotion<\/p>",
              "bgr_color": "#EEEEEE",
              "text_color": "#000000",
              "promo_link": "",
              "button_label": "Shop now",
              "button_style": "button--primary"
            }
          },
          "mega-menu-6-2": {
            "type": "mixed",
            "settings": {
              "richtext_top": "Your headline",
              "image_link_top": "",
              "image_caption_top": "",
              "menu_1": "",
              "menu_1_link": "",
              "menu_2": "",
              "menu_2_link": "",
              "menu_3": "",
              "menu_3_link": "",
              "menu_4": "",
              "menu_4_link": "",
              "image_link_bottom": "",
              "richtext_bottom": ""
            }
          },
          "mega-menu-6-3": {
            "type": "empty_column",
            "settings": {}
          },
          "mega-menu-6-4": {
            "type": "image",
            "settings": {
              "image_link": "",
              "image_caption": "<p>Image caption appears here<\/p>"
            }
          },
          "mega-menu-6-5": {
            "type": "featured_product",
            "settings": {
              "featured_product": "",
              "richtext_bottom": ""
            }
          }
        },
        "block_order": [
          "mega-menu-6-0",
          "mega-menu-6-1",
          "mega-menu-6-2",
          "mega-menu-6-3",
          "mega-menu-6-4",
          "mega-menu-6-5"
        ],
        "settings": {
          "parent_link": "",
          "enable_mega_menu_border": false,
          "mega_menu_background_color": "#f6f6f6",
          "mega_menu_text_color": "#404040",
          "show_mega_bottom_bar": true,
          "mega_bottom_bar_icon": "",
          "mega_bottom_bar_text": "Add your deal, information or promotional text",
          "mega_bottom_bar_link": "",
          "size": "regular",
          "bottom_banner_bg": "#007ace",
          "bottom_banner_text": "#efefef",
          "css_class": "",
          "custom_css": ""
        }
      },
      "mega-menu-7": {
        "type": "mega-menu-7",
        "blocks": {
          "mega-menu-7-0": {
            "type": "menu",
            "settings": {
              "menu_1": "",
              "menu_1_link": ""
            }
          },
          "mega-menu-7-1": {
            "type": "featured_promo",
            "settings": {
              "richtext": "<p>Add description and links to your promotion<\/p>",
              "bgr_color": "#EEEEEE",
              "text_color": "#000000",
              "promo_link": "",
              "button_label": "Shop now",
              "button_style": "button--primary"
            }
          },
          "mega-menu-7-2": {
            "type": "mixed",
            "settings": {
              "richtext_top": "Your headline",
              "image_link_top": "",
              "image_caption_top": "",
              "menu_1": "",
              "menu_1_link": "",
              "menu_2": "",
              "menu_2_link": "",
              "menu_3": "",
              "menu_3_link": "",
              "menu_4": "",
              "menu_4_link": "",
              "image_link_bottom": "",
              "richtext_bottom": ""
            }
          },
          "mega-menu-7-3": {
            "type": "empty_column",
            "settings": {}
          },
          "mega-menu-7-4": {
            "type": "image",
            "settings": {
              "image_link": "",
              "image_caption": "<p>Image caption appears here<\/p>"
            }
          },
          "mega-menu-7-5": {
            "type": "featured_product",
            "settings": {
              "featured_product": "",
              "richtext_bottom": ""
            }
          }
        },
        "block_order": [
          "mega-menu-7-0",
          "mega-menu-7-1",
          "mega-menu-7-2",
          "mega-menu-7-3",
          "mega-menu-7-4",
          "mega-menu-7-5"
        ],
        "settings": {
          "parent_link": "",
          "enable_mega_menu_border": false,
          "mega_menu_background_color": "#f6f6f6",
          "mega_menu_text_color": "#404040",
          "show_mega_bottom_bar": true,
          "mega_bottom_bar_icon": "",
          "mega_bottom_bar_text": "Add your deal, information or promotional text",
          "mega_bottom_bar_link": "",
          "size": "regular",
          "bottom_banner_bg": "#007ace",
          "bottom_banner_text": "#efefef",
          "css_class": "",
          "custom_css": ""
        }
      },
      "mega-menu-8": {
        "type": "mega-menu-8",
        "blocks": {
          "mega-menu-8-0": {
            "type": "menu",
            "settings": {
              "menu_1": "",
              "menu_1_link": ""
            }
          },
          "mega-menu-8-1": {
            "type": "featured_promo",
            "settings": {
              "richtext": "<p>Add description and links to your promotion<\/p>",
              "bgr_color": "#EEEEEE",
              "text_color": "#000000",
              "promo_link": "",
              "button_label": "Shop now",
              "button_style": "button--primary"
            }
          },
          "mega-menu-8-2": {
            "type": "mixed",
            "settings": {
              "richtext_top": "Your headline",
              "image_link_top": "",
              "image_caption_top": "",
              "menu_1": "",
              "menu_1_link": "",
              "menu_2": "",
              "menu_2_link": "",
              "menu_3": "",
              "menu_3_link": "",
              "menu_4": "",
              "menu_4_link": "",
              "image_link_bottom": "",
              "richtext_bottom": ""
            }
          },
          "mega-menu-8-3": {
            "type": "empty_column",
            "settings": {}
          },
          "mega-menu-8-4": {
            "type": "image",
            "settings": {
              "image_link": "",
              "image_caption": "<p>Image caption appears here<\/p>"
            }
          },
          "mega-menu-8-5": {
            "type": "featured_product",
            "settings": {
              "featured_product": "",
              "richtext_bottom": ""
            }
          }
        },
        "block_order": [
          "mega-menu-8-0",
          "mega-menu-8-1",
          "mega-menu-8-2",
          "mega-menu-8-3",
          "mega-menu-8-4",
          "mega-menu-8-5"
        ],
        "settings": {
          "parent_link": "",
          "enable_mega_menu_border": false,
          "mega_menu_background_color": "#f6f6f6",
          "mega_menu_text_color": "#404040",
          "show_mega_bottom_bar": true,
          "mega_bottom_bar_icon": "",
          "mega_bottom_bar_text": "Add your deal, information or promotional text",
          "mega_bottom_bar_link": "",
          "size": "regular",
          "bottom_banner_bg": "#007ace",
          "bottom_banner_text": "#efefef",
          "css_class": "",
          "custom_css": ""
        }
      },
      "mega-menu-9": {
        "type": "mega-menu-9",
        "blocks": {
          "mega-menu-9-0": {
            "type": "menu",
            "settings": {
              "menu_1": "",
              "menu_1_link": ""
            }
          },
          "mega-menu-9-1": {
            "type": "featured_promo",
            "settings": {
              "richtext": "<p>Add description and links to your promotion<\/p>",
              "bgr_color": "#EEEEEE",
              "text_color": "#000000",
              "promo_link": "",
              "button_label": "Shop now",
              "button_style": "button--primary"
            }
          },
          "mega-menu-9-2": {
            "type": "mixed",
            "settings": {
              "richtext_top": "Your headline",
              "image_link_top": "",
              "image_caption_top": "",
              "menu_1": "",
              "menu_1_link": "",
              "menu_2": "",
              "menu_2_link": "",
              "menu_3": "",
              "menu_3_link": "",
              "menu_4": "",
              "menu_4_link": "",
              "image_link_bottom": "",
              "richtext_bottom": ""
            }
          },
          "mega-menu-9-3": {
            "type": "empty_column",
            "settings": {}
          },
          "mega-menu-9-4": {
            "type": "image",
            "settings": {
              "image_link": "",
              "image_caption": "<p>Image caption appears here<\/p>"
            }
          },
          "mega-menu-9-5": {
            "type": "featured_product",
            "settings": {
              "featured_product": "",
              "richtext_bottom": ""
            }
          }
        },
        "block_order": [
          "mega-menu-9-0",
          "mega-menu-9-1",
          "mega-menu-9-2",
          "mega-menu-9-3",
          "mega-menu-9-4",
          "mega-menu-9-5"
        ],
        "settings": {
          "parent_link": "",
          "enable_mega_menu_border": false,
          "mega_menu_background_color": "#f6f6f6",
          "mega_menu_text_color": "#404040",
          "show_mega_bottom_bar": true,
          "mega_bottom_bar_icon": "",
          "mega_bottom_bar_text": "Add your deal, information or promotional text",
          "mega_bottom_bar_link": "",
          "size": "regular",
          "bottom_banner_bg": "#007ace",
          "bottom_banner_text": "#efefef",
          "css_class": "",
          "custom_css": ""
        }
      },
      "mega-menu-10": {
        "type": "mega-menu-10",
        "blocks": {
          "mega-menu-10-0": {
            "type": "menu",
            "settings": {
              "menu_1": "",
              "menu_1_link": ""
            }
          },
          "mega-menu-10-1": {
            "type": "featured_promo",
            "settings": {
              "richtext": "<p>Add description and links to your promotion<\/p>",
              "bgr_color": "#EEEEEE",
              "text_color": "#000000",
              "promo_link": "",
              "button_label": "Shop now",
              "button_style": "button--primary"
            }
          },
          "mega-menu-10-2": {
            "type": "mixed",
            "settings": {
              "richtext_top": "Your headline",
              "image_link_top": "",
              "image_caption_top": "",
              "menu_1": "",
              "menu_1_link": "",
              "menu_2": "",
              "menu_2_link": "",
              "menu_3": "",
              "menu_3_link": "",
              "menu_4": "",
              "menu_4_link": "",
              "image_link_bottom": "",
              "richtext_bottom": ""
            }
          },
          "mega-menu-10-3": {
            "type": "empty_column",
            "settings": {}
          },
          "mega-menu-10-4": {
            "type": "image",
            "settings": {
              "image_link": "",
              "image_caption": "<p>Image caption appears here<\/p>"
            }
          },
          "mega-menu-10-5": {
            "type": "featured_product",
            "settings": {
              "featured_product": "",
              "richtext_bottom": ""
            }
          }
        },
        "block_order": [
          "mega-menu-10-0",
          "mega-menu-10-1",
          "mega-menu-10-2",
          "mega-menu-10-3",
          "mega-menu-10-4",
          "mega-menu-10-5"
        ],
        "settings": {
          "parent_link": "",
          "enable_mega_menu_border": false,
          "mega_menu_background_color": "#f6f6f6",
          "mega_menu_text_color": "#404040",
          "show_mega_bottom_bar": true,
          "mega_bottom_bar_icon": "",
          "mega_bottom_bar_text": "Add your deal, information or promotional text",
          "mega_bottom_bar_link": "",
          "size": "regular",
          "bottom_banner_bg": "#007ace",
          "bottom_banner_text": "#efefef",
          "css_class": "",
          "custom_css": ""
        }
      },
      "UTW-footer-centered": {
        "type": "UTW-footer-centered",
        "blocks": {
          "UTW-footer-centered-0": {
            "type": "logo",
            "settings": {
              "size": "small"
            }
          },
          "UTW-footer-centered-1": {
            "type": "link_list",
            "settings": {
              "menu": "main-menu"
            }
          },
          "UTW-footer-centered-2": {
            "type": "text",
            "settings": {
              "title": "Title",
              "content": "<p>Use this text to share information about your brand with your customers. Describe a product, share announcements, or welcome customers to your store.<\/p>"
            }
          },
          "UTW-footer-centered-3": {
            "type": "social",
            "settings": {}
          }
        },
        "block_order": [
          "UTW-footer-centered-0",
          "UTW-footer-centered-1",
          "UTW-footer-centered-2",
          "UTW-footer-centered-3"
        ],
        "settings": {
          "copyright_text": "",
          "display_designed_by": true,
          "display_shopify": true,
          "display_payment_methods": true,
          "show_locale_selector": true,
          "show_currency_selector": true,
          "css_class": "",
          "custom_css": ""
        }
      },
      "UTW-footer-classic": {
        "type": "UTW-footer-classic",
        "blocks": {
          "218eb714-8be1-43c5-b3fa-9ce76c21d655": {
            "type": "multipletext",
            "settings": {
              "multi_title": "Contact Us",
              "content": "<p>We’re here to help. We are available Mon‑Fri from 8:30AM to 4:00PM (NZ).<br\/><br\/><strong>NZ<\/strong>: 0800 35 73 75<br\/><strong>International<\/strong>: +64 3 357 3758<br\/><br\/><\/p>",
              "email_url": "mailto:email@example.com"
            }
          },
          "ee315a6b-571f-4a57-b00a-960b163f639e": {
            "type": "empty",
            "settings": {}
          },
          "6b0650f2-0597-4e80-9aa0-73c21ccbb613": {
            "type": "link_list",
            "settings": {
              "menu": "about",
              "social_icons_footer": false
            }
          },
          "UTW-footer-classic-1": {
            "type": "link_list",
            "settings": {
              "menu": "support",
              "social_icons_footer": false
            }
          },
          "207906a1-d379-429b-87b8-cb709f61190a": {
            "type": "social",
            "settings": {
              "social_title": "Follow Us",
              "social_icons_footer": true
            }
          },
          "ebb72060-cd37-48d6-ae22-176808f4ed4a": {
            "type": "logo",
            "settings": {
              "logo": "shopify:\/\/shop_images\/2018-B-Corp-Logo-Black-S.png",
              "size": "large",
              "text": "",
              "social_icons_footer": false
            }
          }
        },
        "block_order": [
          "218eb714-8be1-43c5-b3fa-9ce76c21d655",
          "ee315a6b-571f-4a57-b00a-960b163f639e",
          "6b0650f2-0597-4e80-9aa0-73c21ccbb613",
          "UTW-footer-classic-1",
          "207906a1-d379-429b-87b8-cb709f61190a",
          "ebb72060-cd37-48d6-ae22-176808f4ed4a"
        ],
        "settings": {
          "copyright_text": "<p>Secured by Shopify.<\/p>",
          "display_designed_by": false,
          "display_shopify": false,
          "display_payment_methods": true,
          "show_locale_selector": false,
          "show_currency_selector": false,
          "css_class": "",
          "custom_css": ""
        }
      },
      "fixed-message": {
        "type": "fixed-message",
        "settings": {
          "text": "<p>We use cookies to improve user experience and analyse website traffic. For these reasons, we may share your site usage data with our analytics partners. By using this site, you consent to store the cookies and technologies described in our <a href=\"https:\/\/www.untouchedworld.com\/policies\/privacy-policy\" target=\"_blank\" title=\"Privacy Policy\">Privacy Policy<\/a> on your device.<\/p>",
          "button_label": "Close",
          "button_style": "button--secondary",
          "background": "#111111",
          "background_opacity": 100,
          "text_color": "#ffffff",
          "width": "standard",
          "css_class": "",
          "custom_css": ""
        }
      }
    },
    "content_for_index": []
  },
  "platform_customizations": {
    "custom_css": [
      "header#header {border-bottom: 1px solid #eee;}",
      "nav.navbar {height: 80px;}"
    ]
  }
}