{
  "sections": {
    "5955d4e9-85b5-4cb3-870c-1d2744c1ef87": {
      "type": "index__image-with-text",
      "blocks": {
        "template--15829321187480__5955d4e9-85b5-4cb3-870c-1d2744c1ef87-168349943094a0bf1d-0": {
          "type": "image",
          "settings": {
            "image": "shopify:\/\/shop_images\/aw23-shop-mens-02.jpg",
            "image_link": ""
          }
        },
        "template--15829321187480__5955d4e9-85b5-4cb3-870c-1d2744c1ef87-168349943094a0bf1d-2": {
          "type": "text",
          "settings": {
            "title": "Heading text here",
            "heading_size": "regular",
            "text": "<p>Use this text to share information about your brand with your customers. Describe a product, share announcements, or welcome customers to your store.<\/p>",
            "button_label": "View all",
            "link": "",
            "button_style": "button--secondary",
            "background": "#3c4a4d",
            "text_color": "#ffffff",
            "alignment": "left",
            "vertical_position": "center"
          }
        }
      },
      "block_order": [
        "template--15829321187480__5955d4e9-85b5-4cb3-870c-1d2744c1ef87-168349943094a0bf1d-0",
        "template--15829321187480__5955d4e9-85b5-4cb3-870c-1d2744c1ef87-168349943094a0bf1d-2"
      ],
      "settings": {
        "width": "wide",
        "show_gutter": false,
        "padding_top": 0,
        "padding_bottom": 20,
        "animation": "none",
        "css_class": "",
        "custom_css": ""
      }
    },
    "banner": {
      "type": "UTW-index__image-with-text",
      "disabled": true,
      "blocks": {
        "96897baa-a122-47cb-8588-d96f9d3ab0de": {
          "type": "text",
          "settings": {
            "title": "The Packaging Problem",
            "heading_size": "regular",
            "text": "<p>It’s no secret that plastic isn't planet friendly. It pollutes our earth and oceans and takes hundreds of years.<\/p>",
            "button_label": "Read the Article",
            "link": "",
            "button_label_2": "",
            "link_2": "",
            "button_style": "button--primary",
            "background": "#3c4a4d",
            "text_color": "rgba(0,0,0,0)",
            "button_background": "#222222",
            "button_text_color": "#ffffff",
            "alignment": "left",
            "vertical_position": "center"
          }
        },
        "42bb2f74-c835-41e6-bb41-2f19607774c3": {
          "type": "image",
          "settings": {
            "image": "shopify:\/\/shop_images\/david-gor-ifH38T2t63w-unsplash_1.png",
            "image_link": ""
          }
        }
      },
      "block_order": [
        "96897baa-a122-47cb-8588-d96f9d3ab0de",
        "42bb2f74-c835-41e6-bb41-2f19607774c3"
      ],
      "settings": {
        "width": "wide",
        "show_gutter": true,
        "padding_top": 0,
        "padding_bottom": 0,
        "animation": "none",
        "css_class": "",
        "custom_css": ""
      }
    },
    "80dd4ae1-6281-4408-8a40-c4cd42a3f8bb": {
      "type": "UTW-filtering-blog",
      "settings": {}
    },
    "main": {
      "type": "UTW-blog__main",
      "settings": {
        "blog_posts_per_row": 3,
        "blog_posts_per_page": 8,
        "pagination_type": "load_more",
        "show_sidebar": false,
        "sidebar_position": "left",
        "blog_author": false,
        "blog_date": true,
        "read_time": true,
        "blog_comment_count": true,
        "blog_show_tags": true,
        "blog_show_excerpt": true,
        "show_border": false,
        "button_label": "Read more",
        "button_type": "button--primary",
        "width": "wide",
        "padding_top": 40,
        "padding_bottom": 80,
        "animation": "none",
        "css_class": "",
        "custom_css": ""
      }
    }
  },
  "order": [
    "5955d4e9-85b5-4cb3-870c-1d2744c1ef87",
    "banner",
    "80dd4ae1-6281-4408-8a40-c4cd42a3f8bb",
    "main"
  ]
}