{
  "sections": {
    "banner": {
      "type": "fallback_image_banner",
      "disabled": true,
      "custom_css": [],
      "settings": {
        "image_darken": false,
        "width": "wide",
        "banner_height": "small",
        "padding_top": 0,
        "padding_bottom": 0,
        "css_class": "",
        "custom_css": ".banner__heading.title {\n  display: none;\n}"
      }
    },
    "439d7ae5-2db3-4643-9baa-ea67eacc036e": {
      "type": "UTW-collection__main",
      "settings": {
        "linklist_1": "",
        "linklist_2": "",
        "linklist_3": "",
        "header_background": "{{ collection.metafields.custom.collection_colour.value }}",
        "header_txt_color": "{{ collection.metafields.custom.collection_text_colour.value }}",
        "collection_breadcrumb": true,
        "collection_tags": true,
        "collection_sort": true,
        "show_sidebar": false,
        "sidebar_position": "left",
        "show_promo_banner": false,
        "image_darken": false,
        "promo_title": "Special sale on now!",
        "promo_text": "<p>Description of promotion with lots of details.<\/p>",
        "banner_height": "medium",
        "align_height": false,
        "collection_height": 200,
        "products_per_row": "4",
        "mobile_products_per_row": "2",
        "pagination_limit": 24,
        "pagination_type": "basic_pagination",
        "width": "wide",
        "padding_top": 0,
        "padding_bottom": 0,
        "css_class": "",
        "custom_css": ""
      }
    },
    "main": {
      "type": "collection__main",
      "disabled": true,
      "settings": {
        "linklist_1": "",
        "linklist_2": "",
        "linklist_3": "",
        "header_background": "{{ collection.metafields.custom.collection_colour.value }}",
        "header_txt_color": "{{ collection.metafields.custom.collection_text_colour.value }}",
        "collection_breadcrumb": true,
        "collection_tags": true,
        "collection_sort": true,
        "show_sidebar": false,
        "sidebar_position": "left",
        "show_promo_banner": false,
        "image_darken": true,
        "promo_title": "Special sale on now!",
        "promo_text": "<p>Description of promotion with lots of details.<\/p>",
        "banner_height": "small",
        "align_height": false,
        "collection_height": 200,
        "products_per_row": 4,
        "mobile_products_per_row": "2",
        "pagination_limit": 24,
        "pagination_type": "basic_pagination",
        "width": "wide",
        "padding_top": 0,
        "padding_bottom": 40,
        "css_class": "",
        "custom_css": ""
      }
    },
    "f5ca4d14-ee09-49fd-b3bd-03a583b21741": {
      "type": "index__rich-text",
      "settings": {
        "title": "{{ collection.metafields.custom.seo_heading.value }}",
        "heading_font": "sans-serif",
        "heading_color": "rgba(0,0,0,0)",
        "heading_alignment": "left",
        "heading_size": 30,
        "text": "<p>{{ collection.metafields.custom.seo_body | metafield_tag }}<\/p>",
        "text_font": "sans-serif",
        "text_color": "rgba(0,0,0,0)",
        "text_alignment": "left",
        "text_size": 14,
        "columns": 1,
        "button_label": "",
        "button_link": "",
        "button_alignment": "left",
        "button_style": "button--primary",
        "background": "rgba(0,0,0,0)",
        "gradient": "rgba(0,0,0,0)",
        "gradient_rotation": 180,
        "width": "wide",
        "padding_top": 20,
        "padding_bottom": 20,
        "padding_left": 0,
        "padding_right": 0,
        "animation": "none",
        "css_class": "",
        "custom_css": ""
      }
    }
  },
  "order": [
    "banner",
    "439d7ae5-2db3-4643-9baa-ea67eacc036e",
    "main",
    "f5ca4d14-ee09-49fd-b3bd-03a583b21741"
  ]
}