{
  "sections": {
    "717b1519-5bd1-4eae-8720-54b0a66f9956": {
      "type": "index__image-with-text-overlay",
      "settings": {
        "link": "",
        "image": "{{ page.metafields.custom.page_banner_image.value }}",
        "pretext": "",
        "title": "",
        "subtitle": "",
        "pretext_color": "#000000",
        "heading_color": "#000000",
        "subheading_color": "#000000",
        "text_alignment": "center",
        "text_horizontal_position": "center",
        "text_vertical_position": "middle",
        "background_color": "#FFFFFF",
        "background_opacity": 77,
        "border_color": "#FFFFFF",
        "border_width": 0,
        "text_width": 40,
        "button_1": "",
        "button_1_link": "",
        "button_1_style": "button--secondary",
        "button_2": "",
        "button_2_link": "",
        "button_2_style": "button--secondary",
        "mobile_text_below_image": false,
        "pretext_color_mobile": "rgba(0,0,0,0)",
        "heading_color_mobile": "rgba(0,0,0,0)",
        "subheading_color_mobile": "rgba(0,0,0,0)",
        "width": "wide",
        "padding_top": 0,
        "padding_bottom": 0,
        "padding_left": 0,
        "padding_right": 0,
        "animation": "none",
        "css_class": "",
        "custom_css": ""
      }
    },
    "main": {
      "type": "page-content__main",
      "settings": {
        "show_heading": false,
        "heading_alignment": "left",
        "width": "standard",
        "padding_top": 40,
        "padding_bottom": 80,
        "css_class": "",
        "custom_css": ""
      }
    }
  },
  "order": [
    "717b1519-5bd1-4eae-8720-54b0a66f9956",
    "main"
  ]
}