{
  "sections": {
    "banner": {
      "type": "banner",
      "settings": {}
    },
    "main": {
      "type": "search__main-boost-pfs-original",
      "settings": {}
    }
  },
  "order": [
    "banner",
    "main"
  ]
}